<?xml version="1.0" encoding="utf-8"?>
<!-- Generator: Adobe Illustrator 17.0.0, SVG Export Plug-In . SVG Version: 6.00 Build 0)  -->
<!DOCTYPE svg PUBLIC "-//W3C//DTD SVG 1.1//EN" "http://www.w3.org/Graphics/SVG/1.1/DTD/svg11.dtd">
<svg version="1.1" id="Шар_1" xmlns="http://www.w3.org/2000/svg" xmlns:xlink="http://www.w3.org/1999/xlink" x="0px" y="0px"
	 width="14px" height="14px" viewBox="0 0 14 14" enable-background="new 0 0 14 14" xml:space="preserve">
<title>arrow double up w</title>
<desc>Created with Sketch.</desc>
<g id="Page-1">
	<g id="hovers" transform="translate(-426.000000, -421.000000)">
		<path id="arrow-double-up-w" fill="#FFCB41" d="M433.066,426.418c0.109,0,0.211,0.047,0.305,0.141l6.234,6.234
			c0.094,0.094,0.141,0.195,0.141,0.305c0,0.125-0.047,0.227-0.141,0.305l-0.656,0.68c-0.094,0.094-0.203,0.141-0.328,0.141
			c-0.109,0-0.211-0.047-0.305-0.141l-5.25-5.273l-5.273,5.273c-0.094,0.094-0.195,0.141-0.305,0.141s-0.211-0.047-0.305-0.141
			l-0.68-0.68c-0.078-0.078-0.117-0.18-0.117-0.305c0-0.109,0.039-0.211,0.117-0.305l6.258-6.234
			C432.84,426.465,432.941,426.418,433.066,426.418L433.066,426.418z M433.066,421.285c0.109,0,0.211,0.039,0.305,0.117l6.234,6.258
			c0.094,0.078,0.141,0.18,0.141,0.305c0,0.109-0.047,0.211-0.141,0.305l-0.656,0.656c-0.094,0.094-0.203,0.141-0.328,0.141
			c-0.109,0-0.211-0.047-0.305-0.141l-5.25-5.25l-5.273,5.25c-0.094,0.094-0.195,0.141-0.305,0.141s-0.211-0.047-0.305-0.141
			l-0.68-0.656c-0.078-0.094-0.117-0.195-0.117-0.305c0-0.125,0.039-0.227,0.117-0.305l6.258-6.258
			C432.84,421.324,432.941,421.285,433.066,421.285L433.066,421.285z"/>
	</g>
</g>
</svg>
