<?xml version="1.0" encoding="UTF-8" standalone="no"?>
<svg width="32px" height="32px" viewBox="0 0 32 32" version="1.1" xmlns="http://www.w3.org/2000/svg" xmlns:xlink="http://www.w3.org/1999/xlink">
    <!-- Generator: Sketch 39.1 (31720) - http://www.bohemiancoding.com/sketch -->
    <title>g+ m</title>
    <desc>Created with Sketch.</desc>
    <defs></defs>
    <g id="Page-1" stroke="none" stroke-width="1" fill="none" fill-rule="evenodd">
        <g id="hovers" transform="translate(-956.000000, -938.000000)">
            <g id="icons-m" transform="translate(942.000000, 795.000000)">
                <g id="g+-m" transform="translate(14.000000, 143.000000)">
                    <circle id="Oval-59-Copy-3" fill="#CB9C21" cx="16" cy="16" r="16"></circle>
                    <path d="M6.00408857,15.6564242 C5.87380462,12.2289012 8.87606983,9.06171669 12.3068041,9.02042952 C14.055545,8.87133697 15.7565763,9.55051088 17.07983,10.6581538 C16.5371332,11.2547534 15.985032,11.8449305 15.3946255,12.3972611 C14.230098,11.6894155 12.8272518,11.1499299 11.4656927,11.6290904 C9.26967416,12.2543616 7.93999799,14.8471957 8.7524377,16.9957341 C9.42518916,19.2394623 12.1545003,20.4709667 14.293405,19.5282431 C15.4010479,19.1316569 16.1309133,18.1097995 16.451577,17.0115608 C15.1819966,16.9863298 13.9126455,17.0021565 12.6432945,16.9672918 C12.6400833,16.211966 12.6368721,15.4596221 12.6400833,14.7042963 C14.7567387,14.7013144 16.8768348,14.694892 18.9967015,14.7139299 C19.1269854,16.5640538 18.8540314,18.5444616 17.6511986,20.0296528 C16.00407,22.1497488 12.9605176,22.7718088 10.4851225,21.9403312 C7.85742365,21.0769706 5.94697466,18.4302338 6.00408857,15.6564242" id="Fill-23" fill="#FFFFFF"></path>
                    <path d="M23.1224364,12.8002697 L25.0108656,12.8002697 C25.0140768,13.431734 25.0202699,14.0664095 25.0234811,14.6981032 C25.6549454,14.7042963 26.2898503,14.7075075 26.9213146,14.7107187 L26.9213146,16.6021297 C26.2898503,16.605341 25.6549454,16.6085522 25.0234811,16.6117634 C25.0170587,17.2464389 25.0140768,17.8781326 25.0108656,18.5128081 C24.3791719,18.5095969 23.7477076,18.5128081 23.1192252,18.5128081 C23.1130321,17.8781326 23.1130321,17.2464389 23.1066097,16.6149746 C22.4751454,16.6085522 21.8402405,16.605341 21.2087762,16.6021297 L21.2087762,14.7107187 C21.8402405,14.7075075 22.4719341,14.7042963 23.1066097,14.6981032 C23.1098209,14.0664095 23.1162433,13.431734 23.1224364,12.8002697" id="Fill-24" fill="#FFFFFF"></path>
                </g>
            </g>
        </g>
    </g>
</svg>