<?xml version="1.0" encoding="utf-8"?>
<!-- Generator: Adobe Illustrator 19.2.1, SVG Export Plug-In . SVG Version: 6.00 Build 0)  -->
<svg version="1.1" id="Layer_1" xmlns="http://www.w3.org/2000/svg" xmlns:xlink="http://www.w3.org/1999/xlink" x="0px" y="0px"
	 viewBox="0 0 30 30" style="enable-background:new 0 0 30 30;" xml:space="preserve">
<style type="text/css">
	.st0{fill:#FFCB41;}
</style>
<title>inst y</title>
<desc>Created with Sketch.</desc>
<g>
	<path class="st0" d="M20.4,10.9c-0.1-0.3-0.3-0.6-0.5-0.8s-0.5-0.4-0.8-0.5c-0.2-0.1-0.6-0.2-1.3-0.2c-0.7,0-1,0-2.8,0
		c-1.9,0-2.1,0-2.8,0c-0.7,0-1.1,0.1-1.3,0.2c-0.3,0.1-0.6,0.3-0.8,0.5c-0.2,0.2-0.4,0.5-0.5,0.8c-0.1,0.2-0.2,0.6-0.2,1.3
		c0,0.7,0,1,0,2.8c0,1.9,0,2.1,0,2.8c0,0.7,0.1,1.1,0.2,1.3c0.1,0.3,0.3,0.6,0.5,0.8c0.2,0.2,0.5,0.4,0.8,0.5
		c0.2,0.1,0.6,0.2,1.3,0.2c0.7,0,1,0,2.8,0c1.9,0,2.1,0,2.8,0c0.7,0,1.1-0.1,1.3-0.2c0.3-0.1,0.6-0.3,0.8-0.5s0.4-0.5,0.5-0.8
		c0.1-0.2,0.2-0.6,0.2-1.3c0-0.7,0-1,0-2.8c0-1.9,0-2.1,0-2.8C20.6,11.5,20.5,11.1,20.4,10.9z M15,18.6c-2,0-3.6-1.6-3.6-3.6
		c0-2,1.6-3.6,3.6-3.6c2,0,3.6,1.6,3.6,3.6C18.6,17,17,18.6,15,18.6z M18.7,12.1c-0.5,0-0.8-0.4-0.8-0.8s0.4-0.8,0.8-0.8
		s0.8,0.4,0.8,0.8S19.2,12.1,18.7,12.1z"/>
	<path class="st0" d="M15,0C6.7,0,0,6.7,0,15c0,8.3,6.7,15,15,15c8.3,0,15-6.7,15-15C30,6.7,23.3,0,15,0z M21.9,17.9
		c0,0.7-0.2,1.3-0.3,1.7c-0.2,0.5-0.4,0.8-0.8,1.2s-0.8,0.6-1.2,0.8c-0.4,0.2-1,0.3-1.7,0.3c-0.7,0-1,0-2.9,0c-1.9,0-2.1,0-2.9,0
		c-0.7,0-1.3-0.2-1.7-0.3c-0.5-0.2-0.8-0.4-1.2-0.8c-0.4-0.4-0.6-0.8-0.8-1.2c-0.2-0.4-0.3-1-0.3-1.7c0-0.7,0-1,0-2.9
		c0-1.9,0-2.1,0-2.9c0-0.7,0.2-1.3,0.3-1.7C8.5,10,8.8,9.6,9.2,9.2c0.4-0.4,0.8-0.6,1.2-0.8c0.4-0.2,1-0.3,1.7-0.3c0.7,0,1,0,2.9,0
		c1.9,0,2.1,0,2.9,0c0.7,0,1.3,0.2,1.7,0.3c0.5,0.2,0.8,0.4,1.2,0.8s0.6,0.8,0.8,1.2c0.2,0.4,0.3,1,0.3,1.7c0,0.7,0,1,0,2.9
		C22,16.9,22,17.1,21.9,17.9z"/>
	<circle class="st0" cx="15" cy="15" r="2.3"/>
</g>
</svg>
