<?xml version="1.0" encoding="UTF-8" standalone="no"?>
<svg width="18px" height="19px" viewBox="0 0 18 19" version="1.1" xmlns="http://www.w3.org/2000/svg" xmlns:xlink="http://www.w3.org/1999/xlink">
    <!-- Generator: Sketch 39.1 (31720) - http://www.bohemiancoding.com/sketch -->
    <title>share</title>
    <desc>Created with Sketch.</desc>
    <defs></defs>
    <g id="Page-1" stroke="none" stroke-width="1" fill="none" fill-rule="evenodd">
        <g id="hovers" transform="translate(-319.000000, -727.000000)" fill="#FFFFFF">
            <path d="M333.5,740.585938 C333.156248,740.585938 332.830405,740.646809 332.522461,740.768555 C332.214517,740.8903 331.938803,741.058593 331.695312,741.273438 L325.164062,737.470703 C325.192708,737.370442 325.214193,737.266602 325.228516,737.15918 C325.242839,737.051757 325.25,736.940756 325.25,736.826172 C325.25,736.725911 325.242839,736.622071 325.228516,736.514648 C325.214193,736.407226 325.192708,736.296225 325.164062,736.181641 L331.630859,732.421875 C331.87435,732.651043 332.157225,732.830077 332.479492,732.958984 C332.801759,733.087891 333.141925,733.152344 333.5,733.152344 C334.259118,733.152344 334.907224,732.883792 335.444336,732.34668 C335.981448,731.809568 336.25,731.161462 336.25,730.402344 C336.25,729.643225 335.981448,728.99512 335.444336,728.458008 C334.907224,727.920896 334.259118,727.652344 333.5,727.652344 C332.740882,727.652344 332.092776,727.920896 331.555664,728.458008 C331.018552,728.99512 330.75,729.643225 330.75,730.402344 C330.75,730.516928 330.757161,730.627929 330.771484,730.735352 C330.785807,730.842774 330.807292,730.946614 330.835938,731.046875 L324.369141,734.828125 C324.12565,734.598957 323.842775,734.416342 323.520508,734.280273 C323.198241,734.144205 322.858075,734.076172 322.5,734.076172 C321.740882,734.076172 321.092776,734.344724 320.555664,734.881836 C320.018552,735.418948 319.75,736.067053 319.75,736.826172 C319.75,737.58529 320.018552,738.233396 320.555664,738.770508 C321.092776,739.30762 321.740882,739.576172 322.5,739.576172 C322.858075,739.576172 323.198241,739.511719 323.520508,739.382812 C323.842775,739.253906 324.12565,739.074871 324.369141,738.845703 L330.900391,742.648438 C330.871745,742.748698 330.853841,742.848958 330.84668,742.949219 C330.839518,743.04948 330.835938,743.149739 330.835938,743.25 C330.835938,743.994795 331.093747,744.624997 331.609375,745.140625 C332.125003,745.656253 332.755205,745.914062 333.5,745.914062 C334.244795,745.914062 334.874997,745.656253 335.390625,745.140625 C335.906253,744.624997 336.164062,743.994795 336.164062,743.25 C336.164062,742.505205 335.906253,741.875003 335.390625,741.359375 C334.874997,740.843747 334.244795,740.585938 333.5,740.585938 L333.5,740.585938 Z" id="share"></path>
        </g>
    </g>
</svg>