<?xml version="1.0" encoding="utf-8"?>
<!-- Generator: Adobe Illustrator 17.0.0, SVG Export Plug-In . SVG Version: 6.00 Build 0)  -->
<!DOCTYPE svg PUBLIC "-//W3C//DTD SVG 1.1//EN" "http://www.w3.org/Graphics/SVG/1.1/DTD/svg11.dtd">
<svg version="1.1" id="Шар_1" xmlns="http://www.w3.org/2000/svg" xmlns:xlink="http://www.w3.org/1999/xlink" x="0px" y="0px"
	 width="32px" height="32px" viewBox="0 0 32 32" enable-background="new 0 0 32 32" xml:space="preserve">
<title>tw c</title>
<desc>Created with Sketch.</desc>
<g id="Page-1">
	<g id="hovers" transform="translate(-458.000000, -1360.000000)">
		<g id="Group-32-Copy" transform="translate(411.000000, 1358.000000)">
			<g id="tw-c" transform="translate(47.000000, 2.000000)">
				<circle id="Oval-59" fill="#2B2D2F" cx="16" cy="16" r="16"/>
				<path id="_xF099_" fill="#FFFFFF" d="M24.078,12.359c-0.406,0.583-0.891,1.083-1.453,1.5c0.01,0.083,0.016,0.208,0.016,0.375
					c0,0.771-0.115,1.542-0.344,2.312c-0.229,0.771-0.573,1.51-1.031,2.219s-1.005,1.333-1.641,1.875
					c-0.646,0.552-1.417,0.99-2.312,1.312s-1.854,0.484-2.875,0.484c-1.615,0-3.094-0.432-4.438-1.297
					c0.208,0.021,0.443,0.031,0.703,0.031c1.333,0,2.526-0.411,3.578-1.234c-0.625-0.01-1.187-0.198-1.688-0.562
					c-0.49-0.375-0.828-0.854-1.016-1.438c0.198,0.031,0.38,0.047,0.547,0.047c0.26,0,0.516-0.031,0.766-0.094
					c-0.667-0.135-1.219-0.469-1.656-1c-0.438-0.521-0.656-1.13-0.656-1.828v-0.031c0.406,0.219,0.839,0.339,1.297,0.359
					c-0.396-0.26-0.708-0.604-0.938-1.031c-0.229-0.417-0.344-0.875-0.344-1.375c0-0.521,0.13-1.005,0.391-1.453
					c0.719,0.885,1.594,1.594,2.625,2.125c1.031,0.542,2.141,0.839,3.328,0.891c-0.052-0.219-0.078-0.437-0.078-0.656
					c0-0.802,0.281-1.484,0.844-2.047S18.948,11,19.75,11c0.833,0,1.531,0.307,2.094,0.922c0.656-0.125,1.271-0.359,1.844-0.703
					c-0.229,0.688-0.656,1.219-1.281,1.594C22.969,12.75,23.526,12.599,24.078,12.359L24.078,12.359z"/>
			</g>
		</g>
	</g>
</g>
</svg>
