<?xml version="1.0" encoding="UTF-8" standalone="no"?>
<svg width="32px" height="32px" viewBox="0 0 32 32" version="1.1" xmlns="http://www.w3.org/2000/svg" xmlns:xlink="http://www.w3.org/1999/xlink">
    <!-- Generator: Sketch 39.1 (31720) - http://www.bohemiancoding.com/sketch -->
    <title>tw c</title>
    <desc>Created with Sketch.</desc>
    <defs></defs>
    <g id="Page-1" stroke="none" stroke-width="1" fill="none" fill-rule="evenodd">
        <g id="hovers" transform="translate(-458.000000, -1360.000000)">
            <g id="Group-32-Copy" transform="translate(411.000000, 1358.000000)">
                <g id="tw-c" transform="translate(47.000000, 2.000000)">
                    <circle id="Oval-59" fill="#1EA8E3" cx="16" cy="16" r="16"></circle>
                    <path d="M24.078125,12.359375 C23.671873,12.9427113 23.1875028,13.4427063 22.625,13.859375 C22.6354167,13.9427087 22.640625,14.0677075 22.640625,14.234375 C22.640625,15.0052122 22.5260428,15.7760378 22.296875,16.546875 C22.0677072,17.3177122 21.7239606,18.0572881 21.265625,18.765625 C20.8072894,19.4739619 20.2604198,20.0989556 19.625,20.640625 C18.9791634,21.1927111 18.2083378,21.6302067 17.3125,21.953125 C16.4166622,22.2760433 15.4583384,22.4375 14.4375,22.4375 C12.8229086,22.4375 11.3437567,22.0052127 10,21.140625 C10.2083344,21.1614584 10.442707,21.171875 10.703125,21.171875 C12.036465,21.171875 13.2291614,20.7604208 14.28125,19.9375 C13.6562469,19.9270833 13.0937525,19.7395852 12.59375,19.375 C12.1041642,18.9999981 11.7656259,18.5208363 11.578125,17.9375 C11.7760427,17.9687502 11.9583325,17.984375 12.125,17.984375 C12.385418,17.984375 12.6406237,17.9531253 12.890625,17.890625 C12.223955,17.7552077 11.6718772,17.4218777 11.234375,16.890625 C10.7968728,16.3697891 10.578125,15.7604202 10.578125,15.0625 L10.578125,15.03125 C10.984377,15.2500011 11.4166644,15.3697916 11.875,15.390625 C11.4791647,15.130207 11.1666678,14.7864605 10.9375,14.359375 C10.7083322,13.9427063 10.59375,13.4843775 10.59375,12.984375 C10.59375,12.4635391 10.723957,11.9791689 10.984375,11.53125 C11.7031286,12.4166711 12.5781198,13.1249973 13.609375,13.65625 C14.6406302,14.1979194 15.7499941,14.4947914 16.9375,14.546875 C16.8854164,14.3281239 16.859375,14.1093761 16.859375,13.890625 C16.859375,13.0885377 17.1406222,12.4062528 17.703125,11.84375 C18.2656278,11.2812472 18.9479127,11 19.75,11 C20.5833375,11 21.2812472,11.3072886 21.84375,11.921875 C22.5000033,11.7968744 23.1145805,11.5625017 23.6875,11.21875 C23.4583322,11.9062534 23.0312531,12.4374981 22.40625,12.8125 C22.9687528,12.7499997 23.5260389,12.5989595 24.078125,12.359375 L24.078125,12.359375 Z" id="" fill="#FFFFFF"></path>
                </g>
            </g>
        </g>
    </g>
</svg>