<?xml version="1.0" encoding="UTF-8" standalone="no"?>
<svg width="21px" height="21px" viewBox="0 0 21 21" version="1.1" xmlns="http://www.w3.org/2000/svg" xmlns:xlink="http://www.w3.org/1999/xlink">
    <!-- Generator: Sketch 39.1 (31720) - http://www.bohemiancoding.com/sketch -->
    <title>cart</title>
    <desc>Created with Sketch.</desc>
    <defs></defs>
    <g id="Page-1" stroke="none" stroke-width="1" fill="none" fill-rule="evenodd">
        <g id="hovers" transform="translate(-317.000000, -674.000000)" fill="#FFFFFF">
            <path d="M323.56,685.808 L323.56,687.12 L335.368,687.12 C335.737001,687.12 336.047915,687.246415 336.30075,687.49925 C336.553584,687.752084 336.68,688.062998 336.68,688.432 C336.68,688.801002 336.553584,689.111915 336.30075,689.36475 C336.047915,689.617584 335.737001,689.744 335.368,689.744 L322.904,689.744 C322.35733,689.744 321.892668,689.552668 321.51,689.17 C321.127331,688.787331 320.936,688.322669 320.936,687.776 L320.936,676.624 L317,676.624 L317,674 L320.936,674 C321.660337,674 322.278747,674.256247 322.79125,674.76875 C323.303752,675.281253 323.56,675.899663 323.56,676.624 L336.9875,676.624 C337.356501,676.624 337.633249,676.746999 337.81775,676.993 C338.00225,677.239001 338.046667,677.539665 337.951,677.895 L336.0445,684.537 C335.948832,684.892335 335.737001,685.192999 335.409,685.439 C335.080998,685.685001 334.732501,685.808 334.3635,685.808 L323.56,685.808 Z M323.56,679.248 L323.56,683.402666 L333.639166,683.402666 L334.992166,679.248 L323.56,679.248 Z M324.872,693.024 C324.872,693.570669 324.680668,694.035331 324.298,694.418 C323.915331,694.800668 323.450669,694.992 322.904,694.992 C322.35733,694.992 321.892668,694.800668 321.51,694.418 C321.127331,694.035331 320.936,693.570669 320.936,693.024 C320.936,692.47733 321.127331,692.012668 321.51,691.63 C321.892668,691.247331 322.35733,691.056 322.904,691.056 C323.450669,691.056 323.915331,691.247331 324.298,691.63 C324.680668,692.012668 324.872,692.47733 324.872,693.024 L324.872,693.024 Z M336.68,693.024 C336.68,693.570669 336.488668,694.035331 336.106,694.418 C335.723331,694.800668 335.258669,694.992 334.712,694.992 C334.16533,694.992 333.700668,694.800668 333.318,694.418 C332.935331,694.035331 332.744,693.570669 332.744,693.024 C332.744,692.47733 332.935331,692.012668 333.318,691.63 C333.700668,691.247331 334.16533,691.056 334.712,691.056 C335.258669,691.056 335.723331,691.247331 336.106,691.63 C336.488668,692.012668 336.68,692.47733 336.68,693.024 L336.68,693.024 Z" id="cart"></path>
        </g>
    </g>
</svg>