<?xml version="1.0" encoding="UTF-8" standalone="no"?>
<svg width="21px" height="21px" viewBox="0 0 21 21" version="1.1" xmlns="http://www.w3.org/2000/svg" xmlns:xlink="http://www.w3.org/1999/xlink">
    <!-- Generator: Sketch 39.1 (31720) - http://www.bohemiancoding.com/sketch -->
    <title></title>
    <desc>Created with Sketch.</desc>
    <defs></defs>
    <g id="Page-1" stroke="none" stroke-width="1" fill="none" fill-rule="evenodd">
        <g id="ui_product-page-2" transform="translate(-1287.000000, -40.000000)" fill="#FFFFFF">
            <g id="menu">
                <path d="M1293.56,51.8079998 L1293.56,53.1199997 L1305.368,53.1199997 C1305.737,53.1199997 1306.04792,53.2464151 1306.30075,53.4992497 C1306.55358,53.7520843 1306.68,54.0629979 1306.68,54.4319997 C1306.68,54.8010015 1306.55358,55.1119151 1306.30075,55.3647497 C1306.04792,55.6175843 1305.737,55.7439997 1305.368,55.7439997 L1292.904,55.7439997 C1292.35733,55.7439997 1291.89267,55.5526683 1291.51,55.1699997 C1291.12733,54.7873311 1290.936,54.3226691 1290.936,53.7759997 L1290.936,42.6239999 L1287,42.6239999 L1287,40 L1290.936,40 C1291.66034,40 1292.27875,40.2562474 1292.79125,40.76875 C1293.30375,41.2812525 1293.56,41.899663 1293.56,42.6239999 L1306.9875,42.6239999 C1307.3565,42.6239999 1307.63325,42.7469987 1307.81775,42.9929999 C1308.00225,43.2390012 1308.04667,43.5396648 1307.951,43.8949999 L1306.0445,50.5369998 C1305.94883,50.8923349 1305.737,51.1929985 1305.409,51.4389998 C1305.081,51.685001 1304.7325,51.8079998 1304.3635,51.8079998 L1293.56,51.8079998 Z M1293.56,45.2479999 L1293.56,49.4026665 L1303.63917,49.4026665 L1304.99217,45.2479999 L1293.56,45.2479999 Z M1294.872,59.0239996 C1294.872,59.570669 1294.68067,60.035331 1294.298,60.4179996 C1293.91533,60.8006682 1293.45067,60.9919996 1292.904,60.9919996 C1292.35733,60.9919996 1291.89267,60.8006682 1291.51,60.4179996 C1291.12733,60.035331 1290.936,59.570669 1290.936,59.0239996 C1290.936,58.4773302 1291.12733,58.0126682 1291.51,57.6299996 C1291.89267,57.2473311 1292.35733,57.0559997 1292.904,57.0559997 C1293.45067,57.0559997 1293.91533,57.2473311 1294.298,57.6299996 C1294.68067,58.0126682 1294.872,58.4773302 1294.872,59.0239996 L1294.872,59.0239996 Z M1306.68,59.0239996 C1306.68,59.570669 1306.48867,60.035331 1306.106,60.4179996 C1305.72333,60.8006682 1305.25867,60.9919996 1304.712,60.9919996 C1304.16533,60.9919996 1303.70067,60.8006682 1303.318,60.4179996 C1302.93533,60.035331 1302.744,59.570669 1302.744,59.0239996 C1302.744,58.4773302 1302.93533,58.0126682 1303.318,57.6299996 C1303.70067,57.2473311 1304.16533,57.0559997 1304.712,57.0559997 C1305.25867,57.0559997 1305.72333,57.2473311 1306.106,57.6299996 C1306.48867,58.0126682 1306.68,58.4773302 1306.68,59.0239996 L1306.68,59.0239996 Z" id=""></path>
            </g>
        </g>
    </g>
</svg>