<?xml version="1.0" encoding="utf-8"?>
<!-- Generator: Adobe Illustrator 17.0.0, SVG Export Plug-In . SVG Version: 6.00 Build 0)  -->
<!DOCTYPE svg PUBLIC "-//W3C//DTD SVG 1.1//EN" "http://www.w3.org/Graphics/SVG/1.1/DTD/svg11.dtd">
<svg version="1.1" id="Шар_1" xmlns="http://www.w3.org/2000/svg" xmlns:xlink="http://www.w3.org/1999/xlink" x="0px" y="0px"
	 width="18px" height="18px" viewBox="0 0 18 18" enable-background="new 0 0 18 18" xml:space="preserve">
<title>Group</title>
<desc>Created with Sketch.</desc>
<g id="Page-1">
	<g id="Mobile_pop_up" transform="translate(-263.000000, -36.000000)">
		<g id="Group" transform="translate(265.000000, 38.000000)">
			<path id="Line" fill="none" stroke="#FF6A6A" stroke-width="2" stroke-linecap="square" d="M14.577,0L0,14.577"/>
			<path id="Line_1_" fill="none" stroke="#FF6A6A" stroke-width="2" stroke-linecap="square" d="M0,0l14.577,14.577"/>
		</g>
	</g>
</g>
</svg>
